<?xml version="1.0" encoding="UTF-8"?>
<svg width="1439.5" height="967.04" version="1.1" xmlns="http://www.w3.org/2000/svg" xmlns:cc="http://creativecommons.org/ns#" xmlns:dc="http://purl.org/dc/elements/1.1/" xmlns:rdf="http://www.w3.org/1999/02/22-rdf-syntax-ns#" xmlns:xlink="http://www.w3.org/1999/xlink">
<defs>
<marker id="b" overflow="visible" orient="auto">
<path transform="scale(.8) rotate(180) translate(12.5)" d="m0 0 5-5-17.5 5 17.5 5-5-5z" fill-rule="evenodd" stroke="#000" stroke-width="1pt"/>
</marker>
<marker id="e" overflow="visible" orient="auto">
<path transform="scale(.8) translate(12.5)" d="m0 0 5-5-17.5 5 17.5 5-5-5z" fill-rule="evenodd" stroke="#000" stroke-width="1pt"/>
</marker>
<linearGradient id="d" x1="452.57" x2="668.7" y1="42.21" y2="42.21" gradientUnits="userSpaceOnUse">
<stop stop-opacity="0" offset="0"/>
<stop stop-color="#009" offset="1"/>
</linearGradient>
<linearGradient id="a" x1="210.13" x2="400.46" y1="936.13" y2="936.13" gradientUnits="userSpaceOnUse">
<stop stop-color="#ff0006" offset="0"/>
<stop stop-color="#00ff06" stop-opacity=".49804" offset=".5"/>
<stop stop-color="#00f" stop-opacity="0" offset="1"/>
</linearGradient>
</defs>
<metadata>
<rdf:RDF>
<cc:Work rdf:about="">
<dc:format>image/svg+xml</dc:format>
<dc:type rdf:resource="http://purl.org/dc/dcmitype/StillImage"/>
<dc:title/>
</cc:Work>
</rdf:RDF>
</metadata>
<g transform="translate(-552.92 587.82)">
<path d="m1080-567.07v925.53" fill="none" stroke="#000" stroke-dasharray="12.07241206, 1.50905151" stroke-width="1.5091"/>
<rect x="1320.9" y="-380.08" width="650.46" height="714.94" ry="28.624" opacity=".17699" stroke="#000" stroke-linecap="square" stroke-linejoin="bevel" stroke-width=".49701"/>
<rect x="1320.9" y="-380.08" width="650.46" height="714.94" ry="28.624" fill="none" stroke="#000" stroke-linecap="square" stroke-linejoin="bevel" stroke-width="2.1292"/>
<text x="1316.7137" y="-387.70215" fill="#000000" font-family="Courier New" font-size="32px" letter-spacing="0px" word-spacing="0px" style="line-height:125%" xml:space="preserve"><tspan x="1316.7137" y="-387.70215">Discrete GPU</tspan></text>
<text x="678.32361" y="-410.33868" fill="#000000" font-family="Courier New" font-size="32px" letter-spacing="0px" word-spacing="0px" style="line-height:125%" xml:space="preserve"><tspan x="678.32361" y="-410.33868">System Memory</tspan></text>
<rect x="1340.3" y="-364.98" width="366.33" height="675.84" ry="6.3892" fill="none" stroke="#000" stroke-linecap="square" stroke-linejoin="bevel" stroke-width="1.5535"/>
<rect x="1341" y="-366.03" width="366.45" height="677.04" ry="6.4006" fill="#def116" fill-opacity=".65957" stroke="#000" stroke-linecap="square" stroke-linejoin="bevel" stroke-width=".36302"/>
<rect x="1339.5" y="-39.876" width="366.55" height="351.83" ry="3.3261" fill="#483606" fill-opacity=".80319" stroke="#000" stroke-linecap="square" stroke-linejoin="bevel" stroke-width=".26173"/>
<text x="1080.2637" y="-533.57727" fill="#000000" font-family="Courier New" font-size="40px" letter-spacing="0px" text-align="center" text-anchor="middle" word-spacing="0px" style="line-height:125%" xml:space="preserve"><tspan x="1080.2637" y="-533.57727">PCIe Bus</tspan></text>
<rect x="1023.9" y="22.967" width="105.5" height="226.15" fill="none" stroke="#000" stroke-dasharray="33.02467001, 4.12808375" stroke-linecap="square" stroke-linejoin="bevel" stroke-width="4.1281"/>
<text x="1446.5449" y="-342.03217" fill="#000000" font-family="Courier New" font-size="32px" letter-spacing="0px" word-spacing="0px" style="line-height:125%" xml:space="preserve"><tspan x="1446.5449" y="-342.03217">GPU DRAM</tspan></text>
<text x="1032.376" y="17.133041" fill="#000000" font-family="Courier New" font-size="20px" letter-spacing="0px" word-spacing="0px" style="line-height:125%" xml:space="preserve"><tspan x="1032.376" y="17.133041">Aperture</tspan></text>
<path transform="matrix(1.924 0 0 1.924 226.86 -1420.4)" d="m404.06 578.53c0 57.463-46.583 104.05-104.05 104.05s-104.05-46.583-104.05-104.05c0-57.463 46.583-104.05 104.05-104.05s104.05 46.583 104.05 104.05z" fill="none" stroke="#000" stroke-dasharray="32, 4" stroke-linecap="square" stroke-linejoin="bevel" stroke-width="4"/>
<g transform="translate(119.2 93.83)">
<text x="456.98462" y="-46.803925" fill="#000000" font-family="Courier New" font-size="32px" letter-spacing="0px" stroke="#000000" word-spacing="0px" style="line-height:125%" xml:space="preserve"><tspan x="456.98462" y="-46.803925">CPU</tspan></text>
<rect x="454.22" y="-69.256" width="212.83" height="222.93" ry="11.147" fill="url(#d)" stroke="#000"/>
</g>
<path transform="translate(585.89 -1250.5)" d="m398.46 936.13c0 31.8-41.711 57.579-93.164 57.579-51.453 0-93.164-25.779-93.164-57.579 0-31.8 41.711-57.579 93.164-57.579 51.453 0 93.164 25.779 93.164 57.579z" fill="url(#a)" stroke="#000" stroke-dasharray="32, 4" stroke-linecap="square" stroke-linejoin="bevel" stroke-width="4"/>
<rect transform="translate(0 -567.64)" x="1741.5" y="209.83" width="206.07" height="94.954" ry="28.624" fill="none" opacity=".52655" stroke="#000" stroke-dasharray="32, 4" stroke-linecap="square" stroke-linejoin="bevel" stroke-width="4"/>
<rect x="1737.2" y="235.89" width="214.7" height="63.174" ry="21.311" fill="none" opacity=".52655" stroke="#000" stroke-dasharray="27.64623947999999800, 3.45577994000000020" stroke-linecap="square" stroke-linejoin="bevel" stroke-width="3.4558"/>
<path transform="translate(0 -567.64)" d="m1129.3 591.07 211.43-62.5" fill="none" stroke="#000" stroke-dasharray="1, 1" stroke-linejoin="bevel"/>
<path transform="translate(0 -567.64)" d="m1129.3 816.43 212.14 60.714" fill="none" stroke="#000" stroke-dasharray="1, 1" stroke-linejoin="bevel"/>
<text x="1797.1428" y="282.36227" fill="#000000" font-family="Courier New" font-size="40px" letter-spacing="0px" opacity=".52655" word-spacing="0px" style="line-height:125%" xml:space="preserve"><tspan x="1797.1428" y="282.36227">MMIO</tspan></text>
<text x="1810" y="-299.06635" fill="#000000" font-family="Courier New" font-size="40px" letter-spacing="0px" opacity=".52655" word-spacing="0px" style="line-height:125%" xml:space="preserve"><tspan x="1810" y="-299.06635">DMA</tspan></text>
<path transform="translate(552.92 -587.82)" d="m981.25 724.86-11.436-0.99563" fill="none" stroke="#000" stroke-width="1px"/>
<path transform="translate(1299.2 -703.78)" d="m398.46 936.13c0 31.8-41.711 57.579-93.164 57.579-51.453 0-93.164-25.779-93.164-57.579 0-31.8 41.711-57.579 93.164-57.579 51.453 0 93.164 25.779 93.164 57.579z" fill="url(#a)" stroke="#000" stroke-dasharray="32, 4" stroke-linecap="square" stroke-linejoin="bevel" stroke-width="4"/>
<path id="c" transform="translate(552.92 -587.82)" d="m233.33 723.86h818.23v38.729" fill="none" marker-end="url(#b)" stroke="#000" stroke-width="2"/>
<path d="m786.23 108.22h104.97v-365.03" fill="none" marker-end="url(#b)" marker-start="url(#e)" stroke="#000" stroke-width="2"/>
<text x="696.54913" y="-28.468479" fill="#ff0000" font-family="Courier New" font-size="24px" font-weight="bold" letter-spacing="0px" word-spacing="0px" style="line-height:125%" xml:space="preserve"><tspan x="696.54913" y="-28.468479">1. Fetch data from memory</tspan></text>
<text transform="translate(38.67 22.097)" x="567.41211" fill="#ff0000" font-family="Courier New" font-size="24px" font-weight="bold" letter-spacing="0px" word-spacing="0px" writing-mode="lr" style="line-height:125%" xml:space="preserve"><textPath xlink:href="#c">2. Write data through aperture</textPath></text>
</g>
</svg>
