<?xml version="1.0" encoding="UTF-8"?>
<svg width="794.83" height="647.12" version="1.1" xmlns="http://www.w3.org/2000/svg" xmlns:cc="http://creativecommons.org/ns#" xmlns:dc="http://purl.org/dc/elements/1.1/" xmlns:rdf="http://www.w3.org/1999/02/22-rdf-syntax-ns#" xmlns:xlink="http://www.w3.org/1999/xlink">
<defs>
<marker id="o" overflow="visible" orient="auto">
<path transform="scale(.4) translate(10)" d="m0 0 5-5-17.5 5 17.5 5-5-5z" fill-rule="evenodd" stroke="#000" stroke-width="1pt"/>
</marker>
<marker id="d" overflow="visible" orient="auto">
<path transform="matrix(-.2 0 0 -.2 -1.2 0)" d="m0 0 5-5-17.5 5 17.5 5-5-5z" fill-rule="evenodd" stroke="#000" stroke-width="1pt"/>
</marker>
<marker id="a" overflow="visible" orient="auto">
<path transform="matrix(-.4 0 0 -.4 -4 0)" d="m0 0 5-5-17.5 5 17.5 5-5-5z" fill-rule="evenodd" stroke="#000" stroke-width="1pt"/>
</marker>
<pattern id="i" xlink:href="#n" patternTransform="matrix(2.7784 2.7923 -7.1103 7.0747 0 0)"/>
<pattern id="n" width="2" height="1" patternTransform="translate(0) scale(10)" patternUnits="userSpaceOnUse">
<rect y="-.5" width="1" height="2"/>
</pattern>
<marker id="c" overflow="visible" orient="auto">
<path transform="matrix(-.8 0 0 -.8 -10 0)" d="m0 0 5-5-17.5 5 17.5 5-5-5z" fill-rule="evenodd" stroke="#000" stroke-width="1pt"/>
</marker>
<marker id="b" overflow="visible" orient="auto">
<path transform="matrix(.8 0 0 .8 10 0)" d="m0 0 5-5-17.5 5 17.5 5-5-5z" fill-rule="evenodd" stroke="#000" stroke-width="1pt"/>
</marker>
<pattern id="f" xlink:href="#g" patternTransform="matrix(2.7944 3.815 -7.1511 9.6659 -4.1765 -37.592)"/>
<pattern id="g" xlink:href="#l" patternTransform="matrix(2.7784 2.7923 -7.1103 7.0747 0 0)"/>
<pattern id="l" width="2" height="1" patternTransform="translate(0) scale(10)" patternUnits="userSpaceOnUse">
<rect y="-.5" width="1" height="2"/>
</pattern>
<pattern id="e" xlink:href="#h" patternTransform="matrix(2.7924 1.8795 -7.1462 4.7618 -3.922 131.98)"/>
<pattern id="h" xlink:href="#m" patternTransform="matrix(2.7784 2.7923 -7.1103 7.0747 0 0)"/>
<pattern id="m" width="2" height="1" patternTransform="translate(0) scale(10)" patternUnits="userSpaceOnUse">
<rect y="-.5" width="1" height="2"/>
</pattern>
<linearGradient id="k" x1="593.66" x2="729.64" y1="664.29" y2="664.29" gradientTransform="matrix(1.0008 0 0 .66839 -.55456 197.78)" gradientUnits="userSpaceOnUse">
<stop stop-color="#000078" stop-opacity=".4958" offset="0"/>
<stop stop-opacity=".48627" offset="1"/>
</linearGradient>
<linearGradient id="j" x1="593.66" x2="729.64" y1="664.29" y2="664.29" gradientTransform="matrix(1.0008 0 0 .66839 177.23 165.74)" gradientUnits="userSpaceOnUse">
<stop stop-color="#000078" stop-opacity=".4958" offset="0"/>
<stop stop-opacity=".48627" offset="1"/>
</linearGradient>
</defs>
<metadata>
<rdf:RDF>
<cc:Work rdf:about="">
<dc:format>image/svg+xml</dc:format>
<dc:type rdf:resource="http://purl.org/dc/dcmitype/StillImage"/>
<dc:title/>
</cc:Work>
</rdf:RDF>
</metadata>
<g transform="translate(-258.19 -5.6949)">
<path d="m472.76 471.72v-46.429h141.25 141.25v46.429 46.429h-141.25-141.25v-46.429z" color="#000000" fill="url(#i)" opacity=".33929"/>
<path transform="translate(0 -308.27)" d="m471.3 606.9v-63.433h142.06 142.06v63.433 63.433h-142.06-142.06v-63.433z" color="#000000" fill="url(#f)" opacity=".33929"/>
<path transform="translate(0 -308.27)" d="m471.23 449.49v-31.25h141.96 141.96v31.25 31.25h-141.96-141.96v-31.25z" color="#000000" fill="url(#e)" opacity=".33929"/>
<path d="m473.41 393.11v-31.071h140.71 140.71v31.071 31.071h-140.71-140.71v-31.071z" color="#000000" fill="#9abb8d"/>
<path d="m473.41 203.47v-30.714h140.71 140.71v30.714 30.714h-140.71-140.71v-30.714z" color="#000000" fill="#9abb8d"/>
</g>
<g transform="translate(-258.19 -313.96)" fill="none">
<rect x="471.98" y="417.43" width="284.29" height="410" ry="0" color="#000000" stroke="#000" stroke-width="1.5"/>
<path d="m471.67 543.46h284.98" stroke="#000" stroke-width=".89687px"/>
<path d="m471.67 480.29h284.98" stroke="#000" stroke-width=".89687px"/>
<path d="m471.75 669.73h284.84" stroke="#000" stroke-width="1.0418px"/>
<path d="m471.67 732.97h284.98" stroke="#000" stroke-width=".89687px"/>
<path transform="translate(0 308.27)" d="m473.12 141.11v-30.305h140.92 140.92v30.305 30.305h-140.92-140.92v-30.305z" color="#000000"/>
<path d="m333.46 416.99h137.45" stroke="#000" stroke-dasharray="3.738, 0.623" stroke-width=".623"/>
<path d="m333.46 827.86h137.45" stroke="#000" stroke-dasharray="3.738, 0.623" stroke-width=".623"/>
<path transform="translate(0 308.27)" d="m359.29 108.38v102.86 45.714m0 72.143v95.714 95" marker-end="url(#c)" marker-start="url(#b)" stroke="#000" stroke-width="1px"/>
<path d="m429.81 675.82v53.428" marker-end="url(#c)" marker-start="url(#b)" stroke="#000" stroke-width=".38253px"/>
<path d="m429.81 486.09v55.066" marker-end="url(#c)" marker-start="url(#b)" stroke="#000" stroke-width=".38594px"/>
<path d="m614.12 833.58v67.857h-109.14" marker-start="url(#o)" stroke="#981d00" stroke-width="3"/>
</g>
<g transform="translate(-258.19 -5.6949)">
<text transform="translate(0 -308.27)" x="320.21835" y="910.94086" fill="#000000" font-family="Courier New" font-size="28px" letter-spacing="0px" word-spacing="0px" style="line-height:125%" xml:space="preserve"><tspan x="320.21835" y="910.94086">PP_DIR_BASE</tspan></text>
<text x="359.15173" y="274.99289" fill="#000000" font-family="Courier New" font-size="17.149px" letter-spacing="0px" text-align="center" text-anchor="middle" word-spacing="0px" style="line-height:125%" xml:space="preserve"><tspan x="359.15173" y="274.99289">i915_address_space</tspan><tspan x="359.15173" y="296.42941">VA 0-2GB</tspan><tspan x="359.15173" y="317.86597">(drm_mm)</tspan></text>
<text x="465.78448" y="517.90869" fill="#000000" font-family="Courier New" font-size="12px" letter-spacing="0px" text-align="end" text-anchor="end" word-spacing="0px" style="line-height:125%" xml:space="preserve"><tspan x="465.78448" y="517.90869">0x00000000</tspan></text>
<text transform="translate(0 -308.27)" x="465.78448" y="427.40448" fill="#000000" font-family="Courier New" font-size="12px" letter-spacing="0px" text-align="end" text-anchor="end" word-spacing="0px" style="line-height:125%" xml:space="preserve"><tspan x="465.78448" y="427.40448">0x80000000</tspan></text>
<text x="520.32214" y="101.83334" fill="#000000" font-family="Courier New" font-size="24px" letter-spacing="0px" word-spacing="0px" style="line-height:125%" xml:space="preserve"><tspan x="520.32214" y="101.83334">i915_hw_ppgtt</tspan></text>
<rect x="881.33" y="351.54" width="82.985" height="67.758" ry="0" color="#000000" fill="#3062b6" opacity=".83036" stroke="#000" stroke-width=".46954"/>
<text x="893.76379" y="380.55954" fill="#000000" font-family="Courier New" font-size="12.059px" letter-spacing="0px" word-spacing="0px" style="line-height:125%" xml:space="preserve"><tspan x="893.76379" y="380.55954">physical </tspan><tspan x="893.76379" y="395.63309">page 0</tspan></text>
<text x="509.36801" y="187.77789" fill="#000000" font-family="Courier New" font-size="40px" letter-spacing="0px" word-spacing="0px" style="line-height:125%" xml:space="preserve"><tspan x="509.36801" y="187.77789" font-size="18px">i915_vma *vma_2</tspan><tspan x="509.36801" y="206.45795" font-size="14px">    size = 4096</tspan><tspan x="509.36801" y="223.95795" dy="0 0 0 0 0 0 0 0 0 0 0 0 5.0000062"><tspan font-size="14px">    obj = BO</tspan><tspan font-size="10px">y</tspan></tspan></text>
<text x="509.54233" y="379.26459" fill="#000000" font-family="Courier New" letter-spacing="0px" word-spacing="0px" style="line-height:125%" xml:space="preserve"><tspan x="509.54233" y="379.26459" font-size="18px">i915_vma *vma_1</tspan><tspan x="509.54233" y="397.94464" font-size="14px">    size = 2048</tspan><tspan x="509.54233" y="415.44464" dy="0 0 0 0 0 0 0 0 0 0 0 0" font-size="18px"><tspan dy="0 0 0 0 0 0 0 0 0 0 0 0 2.8571427" font-size="14px">    obj = BO<tspan font-size="10px">x</tspan></tspan></tspan></text>
<text transform="scale(1.1008 .90845)" x="423.16113" y="263.39175" fill="#000000" font-family="Courier New" font-size="10.908px" letter-spacing="0px" text-align="end" text-anchor="end" word-spacing="0px" style="line-height:125%" xml:space="preserve"><tspan x="423.16113" y="263.39175">0x20000000</tspan></text>
<text transform="translate(0 -308.27)" x="465.78433" y="737.04437" fill="#000000" font-family="Courier New" font-size="12px" letter-spacing="0px" text-align="end" text-anchor="end" word-spacing="0px" style="line-height:125%" xml:space="preserve"><tspan x="465.78433" y="737.04437">0x00064000</tspan></text>
<text x="465.78433" y="175.70248" fill="#000000" font-family="Courier New" font-size="12px" letter-spacing="0px" text-align="end" text-anchor="end" word-spacing="0px" style="line-height:125%" xml:space="preserve"><tspan x="465.78433" y="175.70248">0x20001000</tspan></text>
<text x="565.96472" y="486.71088" fill="#000000" font-family="Monospace" font-size="40px" font-weight="bold" letter-spacing="0px" word-spacing="0px" style="line-height:125%" xml:space="preserve"><tspan x="565.96472" y="486.71088">HOLE</tspan></text>
<text x="565.96472" y="312.88943" fill="#000000" font-family="Monospace" font-size="40px" font-weight="bold" letter-spacing="0px" word-spacing="0px" style="line-height:125%" xml:space="preserve"><tspan x="565.96472" y="312.88943">HOLE</tspan></text>
<text x="565.96472" y="154.93294" fill="#000000" font-family="Monospace" font-size="40px" font-weight="bold" letter-spacing="0px" word-spacing="0px" style="line-height:125%" xml:space="preserve"><tspan x="565.96472" y="154.93294">HOLE</tspan></text>
<text x="465.78433" y="365.13913" fill="#000000" font-family="Courier New" font-size="12px" letter-spacing="0px" text-align="end" text-anchor="end" word-spacing="0px" style="line-height:125%" xml:space="preserve"><tspan x="465.78433" y="365.13913">0x00069000</tspan></text>
<rect x="920.68" y="462.4" width="82.985" height="67.758" ry="0" color="#000000" fill="#3062b6" opacity=".83036" stroke="#000" stroke-width=".46954"/>
<text x="933.11389" y="491.42712" fill="#000000" font-family="Courier New" font-size="12.059px" letter-spacing="0px" word-spacing="0px" style="line-height:125%" xml:space="preserve"><tspan x="933.11389" y="491.42712">physical </tspan><tspan x="933.11389" y="506.50067">page 2</tspan></text>
<rect x="827.06" y="500.39" width="82.985" height="67.758" ry="0" color="#000000" fill="#3062b6" opacity=".83036" stroke="#000" stroke-width=".46954"/>
<text x="839.49335" y="529.41528" fill="#000000" font-family="Courier New" font-size="12.059px" letter-spacing="0px" word-spacing="0px" style="line-height:125%" xml:space="preserve"><tspan x="839.49335" y="529.41528">physical </tspan><tspan x="839.49335" y="544.48883">page 1</tspan></text>
<rect x="888.76" y="574.82" width="82.985" height="67.758" ry="0" color="#000000" fill="#3062b6" opacity=".83036" stroke="#000" stroke-width=".46954"/>
<text x="901.19525" y="603.84314" fill="#000000" font-family="Courier New" font-size="12.059px" letter-spacing="0px" word-spacing="0px" style="line-height:125%" xml:space="preserve"><tspan x="901.19525" y="603.84314">physical </tspan><tspan x="901.19525" y="618.91669">page 3</tspan></text>
<rect x="823.94" y="425.96" width="82.985" height="67.758" ry="0" color="#000000" fill="#3062b6" opacity=".83036" stroke="#000" stroke-width=".46954"/>
<text x="836.37347" y="454.98743" fill="#000000" font-family="Courier New" font-size="12.059px" letter-spacing="0px" word-spacing="0px" style="line-height:125%" xml:space="preserve"><tspan x="836.37347" y="454.98743">physical </tspan><tspan x="836.37347" y="470.06097">page 4</tspan></text>
<g transform="translate(216.43 -357.14)">
<text x="598.01031" y="644.59442" fill="#000000" font-family="Courier New" font-size="12px" letter-spacing="0px" word-spacing="0px" style="line-height:125%" xml:space="preserve"><tspan x="598.01031" y="644.59442">sg_table *pages</tspan></text>
<rect x="593.91" y="596.56" width="135.47" height="90.474" ry="14.671" color="#000000" fill="url(#k)" stroke="#000" stroke-width=".50955"/>
<path d="m594.15 623.89h135.01" fill="none" stroke="#000" stroke-width=".9877px"/>
<text x="645.37061" y="614.45404" fill="#000000" font-family="Courier New" font-size="40px" letter-spacing="0px" word-spacing="0px" style="line-height:125%" xml:space="preserve"><tspan x="645.37061" y="614.45404" dy="0 0 3.0304575" font-size="20px">BO<tspan font-size="14px">x</tspan></tspan></text>
</g>
<g transform="translate(30 -459.29)">
<text x="775.79114" y="612.5462" fill="#000000" font-family="Courier New" font-size="12px" letter-spacing="0px" word-spacing="0px" style="line-height:125%" xml:space="preserve"><tspan x="775.79114" y="612.5462">sg_table *pages</tspan></text>
<rect x="771.69" y="564.51" width="135.47" height="90.474" ry="14.671" color="#000000" fill="url(#j)" stroke="#000" stroke-width=".50955"/>
<path d="m771.93 591.84h135.01" fill="none" stroke="#000" stroke-width=".9877px"/>
<text x="823.15143" y="582.40582" fill="#000000" font-family="Courier New" font-size="40px" letter-spacing="0px" word-spacing="0px" style="line-height:125%" xml:space="preserve"><tspan x="823.15143" y="582.40582" dy="0 0" font-size="20px">BO<tspan dy="3.0304577" font-size="14px">y</tspan></tspan></text>
</g>
<rect x="951.36" y="15.93" width="82.985" height="67.758" ry="0" color="#000000" fill="#3062b6" opacity=".83036" stroke="#000" stroke-width=".46954"/>
<text x="963.80237" y="44.954067" fill="#000000" font-family="Courier New" font-size="12.059px" letter-spacing="0px" word-spacing="0px" style="line-height:125%" xml:space="preserve"><tspan x="963.80237" y="44.954067">physical </tspan><tspan x="963.80237" y="60.027599">page N</tspan></text>
<path d="m918.04 150.52s56.692 8.4694 68.369-18.307c12.777-29.3 6.274-39.853 6.274-46.742" fill="none" marker-end="url(#a)" stroke="#000"/>
<path d="m922.94 285.09c16.94 6.1053 32.133 12.382 41.794 26.65 17.935 27.164 40.479 77.947 1.7222 79.268" fill="none" marker-end="url(#a)" stroke="#000"/>
<path d="m965.52 313.17c98.542 168.79 74.124 185.19 40.129 185.9" fill="none" marker-end="url(#a)" stroke="#000"/>
<path d="m998.06 372c48.026 107.19-52.155 86.467-89.21 86.467" fill="none" marker-end="url(#a)" stroke="#000"/>
<path d="m964.6 311.54c194.77 281.89-41.537 230.78-52.415 230.98" fill="none" marker-end="url(#a)" stroke="#000"/>
<path d="m1040.2 471.17c14.6 144.9-42.71 136.14-66.315 137.51" fill="none" marker-end="url(#a)" stroke="#000"/>
<path d="m623.57 413.38h156.43v-125.71h27.059" fill="none" marker-end="url(#d)" stroke="#000" stroke-width="2.5"/>
<path d="m626.43 223.38h157.86v-75h13.62" fill="none" marker-end="url(#d)" stroke="#000" stroke-width="2.5"/>
</g>
</svg>
