<?xml version="1.0" encoding="UTF-8"?>
<svg width="1328" height="1234" version="1.1" viewBox="0 0 1245 1156.9" xmlns="http://www.w3.org/2000/svg" xmlns:cc="http://creativecommons.org/ns#" xmlns:dc="http://purl.org/dc/elements/1.1/" xmlns:rdf="http://www.w3.org/1999/02/22-rdf-syntax-ns#">
<defs>
<filter id="c" x="-.020774" y="-.062636" width="1.0415" height="1.1253" color-interpolation-filters="sRGB">
<feGaussianBlur stdDeviation="3.4799755"/>
</filter>
<filter id="a" x="-.020774" y="-.062636" width="1.0415" height="1.1253" color-interpolation-filters="sRGB">
<feGaussianBlur stdDeviation="3.4799755"/>
</filter>
<filter id="b" x="-.020774" y="-.062636" width="1.0415" height="1.1253" color-interpolation-filters="sRGB">
<feGaussianBlur stdDeviation="3.4799755"/>
</filter>
</defs>
<metadata>
<rdf:RDF>
<cc:Work rdf:about="">
<dc:format>image/svg+xml</dc:format>
<dc:type rdf:resource="http://purl.org/dc/dcmitype/StillImage"/>
<dc:title/>
</cc:Work>
</rdf:RDF>
</metadata>
<g transform="translate(454.83 -97.051)">
<rect x="-439.39" y="1008.4" width="402.04" height="133.34" ry="31.315" color="#000000" color-rendering="auto" fill-rule="evenodd" filter="url(#b)" image-rendering="auto" shape-rendering="auto" solid-color="#000000" style="isolation:auto;mix-blend-mode:normal"/>
<rect x="-436.39" y="1005.4" width="402.04" height="133.34" ry="31.315" color="#000000" color-rendering="auto" fill="#eef449" fill-rule="evenodd" image-rendering="auto" shape-rendering="auto" solid-color="#000000" style="isolation:auto;mix-blend-mode:normal"/>
<rect x="-439.39" y="608.86" width="402.04" height="133.34" ry="31.315" color="#000000" color-rendering="auto" fill-rule="evenodd" filter="url(#a)" image-rendering="auto" shape-rendering="auto" solid-color="#000000" style="isolation:auto;mix-blend-mode:normal"/>
<rect x="-436.39" y="605.86" width="402.04" height="133.34" ry="31.315" color="#000000" color-rendering="auto" fill="#eef449" fill-rule="evenodd" image-rendering="auto" shape-rendering="auto" solid-color="#000000" style="isolation:auto;mix-blend-mode:normal"/>
<rect x="-439.39" y="209.3" width="402.04" height="133.34" ry="31.315" color="#000000" color-rendering="auto" fill-rule="evenodd" filter="url(#c)" image-rendering="auto" shape-rendering="auto" solid-color="#000000" style="isolation:auto;mix-blend-mode:normal"/>
<rect x="-436.39" y="206.3" width="402.04" height="133.34" ry="31.315" color="#000000" color-rendering="auto" fill="#eef449" fill-rule="evenodd" image-rendering="auto" shape-rendering="auto" solid-color="#000000" style="isolation:auto;mix-blend-mode:normal"/>
<g>
<rect x="124.31" y="127.82" width="495.47" height="319.48" color="#000000" color-rendering="auto" fill="#0b15da" fill-opacity=".37386" fill-rule="evenodd" image-rendering="auto" opacity=".287" shape-rendering="auto" solid-color="#000000" stroke="#000" stroke-width=".9783" style="isolation:auto;mix-blend-mode:normal"/>
<text x="144.09862" y="170.49904" fill="#000000" font-family="sans-serif" letter-spacing="0px" stroke-width="1px" word-spacing="0px" style="line-height:0%" xml:space="preserve"><tspan x="144.09862" y="170.49904" font-size="40px" style="line-height:1.25">X</tspan></text>
<text x="214.97458" y="170.49904" fill="#000000" font-family="sans-serif" letter-spacing="0px" stroke-width="1px" word-spacing="0px" style="line-height:0%" xml:space="preserve"><tspan x="214.97458" y="170.49904" font-size="40px" style="line-height:1.25">Y</tspan></text>
<text x="284.47556" y="170.21584" fill="#000000" font-family="sans-serif" letter-spacing="0px" stroke-width="1px" word-spacing="0px" style="line-height:0%" xml:space="preserve"><tspan x="284.47556" y="170.21584" font-size="40px" style="line-height:1.25">U</tspan></text>
<text x="358.37537" y="170.49904" fill="#000000" font-family="sans-serif" letter-spacing="0px" stroke-width="1px" word-spacing="0px" style="line-height:0%" xml:space="preserve"><tspan x="358.37537" y="170.49904" font-size="40px" style="line-height:1.25">V</tspan></text>
<text x="427.67676" y="170.49904" fill="#000000" font-family="sans-serif" letter-spacing="0px" stroke-width="1px" word-spacing="0px" style="line-height:0%" xml:space="preserve"><tspan x="427.67676" y="170.49904" font-size="40px" style="line-height:1.25">R</tspan></text>
<text x="499.90234" y="170.47951" fill="#000000" font-family="sans-serif" letter-spacing="0px" stroke-width="1px" word-spacing="0px" style="line-height:0%" xml:space="preserve"><tspan x="499.90234" y="170.47951" font-size="40px" style="line-height:1.25">G</tspan></text>
<text x="573.38507" y="170.49904" fill="#000000" font-family="sans-serif" letter-spacing="0px" stroke-width="1px" word-spacing="0px" style="line-height:0%" xml:space="preserve"><tspan x="573.38507" y="170.49904" font-size="40px" style="line-height:1.25">B</tspan></text>
<path d="m123.05 181.61h498" fill="none" stroke="#000" stroke-width=".99098px"/>
<path d="m550.84 127.33v319.5" fill="none" stroke="#000" stroke-width=".97752px"/>
<path d="m478.92 127.33v320.46" fill="none" stroke="#000" stroke-width=".97752px"/>
<path d="m407 127.33v320.46" fill="none" stroke="#000" stroke-width=".97752px"/>
<path d="m335.08 127.33v320.46" fill="none" stroke="#000" stroke-width=".97752px"/>
<path d="m263.15 127.33v320.46" fill="none" stroke="#000" stroke-width=".97752px"/>
<path d="m191.23 127.33v320.46" fill="none" stroke="#000" stroke-width=".97752px"/>
<g transform="translate(65.971 4.0406)" fill="#000000" font-family="sans-serif" letter-spacing="0px" stroke-width="1px" word-spacing="0px">
<text x="78.127594" y="222.01682" style="line-height:0%" xml:space="preserve"><tspan x="78.127594" y="222.01682" font-size="40px" style="line-height:1.25">X</tspan></text>
<text x="149.00356" y="222.01682" style="line-height:0%" xml:space="preserve"><tspan x="149.00356" y="222.01682" font-size="40px" style="line-height:1.25">Y</tspan></text>
<text x="218.50455" y="221.73361" style="line-height:0%" xml:space="preserve"><tspan x="218.50455" y="221.73361" font-size="40px" style="line-height:1.25">U</tspan></text>
<text x="292.40436" y="222.01682" style="line-height:0%" xml:space="preserve"><tspan x="292.40436" y="222.01682" font-size="40px" style="line-height:1.25">V</tspan></text>
<text x="361.70575" y="222.01682" style="line-height:0%" xml:space="preserve"><tspan x="361.70575" y="222.01682" font-size="40px" style="line-height:1.25">R</tspan></text>
<text x="433.93134" y="221.99728" style="line-height:0%" xml:space="preserve"><tspan x="433.93134" y="221.99728" font-size="40px" style="line-height:1.25">G</tspan></text>
<text x="507.41403" y="222.01682" style="line-height:0%" xml:space="preserve"><tspan x="507.41403" y="222.01682" font-size="40px" style="line-height:1.25">B</tspan></text>
</g>
<path d="m123.05 234.95h498" fill="none" stroke="#000" stroke-width=".99098px"/>
<path d="m123.05 288.28h498" fill="none" stroke="#000" stroke-width=".99098px"/>
<path d="m123.05 341.62h498" fill="none" stroke="#000" stroke-width=".99098px"/>
<path d="m123.05 394.95h498" fill="none" stroke="#000" stroke-width=".99098px"/>
<g transform="translate(66.376 54.178)" fill="#000000" font-family="sans-serif" letter-spacing="0px" stroke-width="1px" word-spacing="0px">
<text x="78.127594" y="222.01682" style="line-height:0%" xml:space="preserve"><tspan x="78.127594" y="222.01682" font-size="40px" style="line-height:1.25">X</tspan></text>
<text x="149.00356" y="222.01682" style="line-height:0%" xml:space="preserve"><tspan x="149.00356" y="222.01682" font-size="40px" style="line-height:1.25">Y</tspan></text>
<text x="218.50455" y="221.73361" style="line-height:0%" xml:space="preserve"><tspan x="218.50455" y="221.73361" font-size="40px" style="line-height:1.25">U</tspan></text>
<text x="292.40436" y="222.01682" style="line-height:0%" xml:space="preserve"><tspan x="292.40436" y="222.01682" font-size="40px" style="line-height:1.25">V</tspan></text>
<text x="361.70575" y="222.01682" style="line-height:0%" xml:space="preserve"><tspan x="361.70575" y="222.01682" font-size="40px" style="line-height:1.25">R</tspan></text>
<text x="433.93134" y="221.99728" style="line-height:0%" xml:space="preserve"><tspan x="433.93134" y="221.99728" font-size="40px" style="line-height:1.25">G</tspan></text>
<text x="507.41403" y="222.01682" style="line-height:0%" xml:space="preserve"><tspan x="507.41403" y="222.01682" font-size="40px" style="line-height:1.25">B</tspan></text>
</g>
<g transform="translate(66.376 107.51)" fill="#000000" font-family="sans-serif" letter-spacing="0px" stroke-width="1px" word-spacing="0px">
<text x="78.127594" y="222.01682" style="line-height:0%" xml:space="preserve"><tspan x="78.127594" y="222.01682" font-size="40px" style="line-height:1.25">X</tspan></text>
<text x="149.00356" y="222.01682" style="line-height:0%" xml:space="preserve"><tspan x="149.00356" y="222.01682" font-size="40px" style="line-height:1.25">Y</tspan></text>
<text x="218.50455" y="221.73361" style="line-height:0%" xml:space="preserve"><tspan x="218.50455" y="221.73361" font-size="40px" style="line-height:1.25">U</tspan></text>
<text x="292.40436" y="222.01682" style="line-height:0%" xml:space="preserve"><tspan x="292.40436" y="222.01682" font-size="40px" style="line-height:1.25">V</tspan></text>
<text x="361.70575" y="222.01682" style="line-height:0%" xml:space="preserve"><tspan x="361.70575" y="222.01682" font-size="40px" style="line-height:1.25">R</tspan></text>
<text x="433.93134" y="221.99728" style="line-height:0%" xml:space="preserve"><tspan x="433.93134" y="221.99728" font-size="40px" style="line-height:1.25">G</tspan></text>
<text x="507.41403" y="222.01682" style="line-height:0%" xml:space="preserve"><tspan x="507.41403" y="222.01682" font-size="40px" style="line-height:1.25">B</tspan></text>
</g>
<g transform="translate(66.376 160.85)" fill="#000000" font-family="sans-serif" letter-spacing="0px" stroke-width="1px" word-spacing="0px">
<text x="78.127594" y="222.01682" style="line-height:0%" xml:space="preserve"><tspan x="78.127594" y="222.01682" font-size="40px" style="line-height:1.25">X</tspan></text>
<text x="149.00356" y="222.01682" style="line-height:0%" xml:space="preserve"><tspan x="149.00356" y="222.01682" font-size="40px" style="line-height:1.25">Y</tspan></text>
<text x="218.50455" y="221.73361" style="line-height:0%" xml:space="preserve"><tspan x="218.50455" y="221.73361" font-size="40px" style="line-height:1.25">U</tspan></text>
<text x="292.40436" y="222.01682" style="line-height:0%" xml:space="preserve"><tspan x="292.40436" y="222.01682" font-size="40px" style="line-height:1.25">V</tspan></text>
<text x="361.70575" y="222.01682" style="line-height:0%" xml:space="preserve"><tspan x="361.70575" y="222.01682" font-size="40px" style="line-height:1.25">R</tspan></text>
<text x="433.93134" y="221.99728" style="line-height:0%" xml:space="preserve"><tspan x="433.93134" y="221.99728" font-size="40px" style="line-height:1.25">G</tspan></text>
<text x="507.41403" y="222.01682" style="line-height:0%" xml:space="preserve"><tspan x="507.41403" y="222.01682" font-size="40px" style="line-height:1.25">B</tspan></text>
</g>
<g transform="translate(66.376 212.23)" fill="#000000" font-family="sans-serif" letter-spacing="0px" stroke-width="1px" word-spacing="0px">
<text x="78.127594" y="222.01682" style="line-height:0%" xml:space="preserve"><tspan x="78.127594" y="222.01682" font-size="40px" style="line-height:1.25">X</tspan></text>
<text x="149.00356" y="222.01682" style="line-height:0%" xml:space="preserve"><tspan x="149.00356" y="222.01682" font-size="40px" style="line-height:1.25">Y</tspan></text>
<text x="218.50455" y="221.73361" style="line-height:0%" xml:space="preserve"><tspan x="218.50455" y="221.73361" font-size="40px" style="line-height:1.25">U</tspan></text>
<text x="292.40436" y="222.01682" style="line-height:0%" xml:space="preserve"><tspan x="292.40436" y="222.01682" font-size="40px" style="line-height:1.25">V</tspan></text>
<text x="361.70575" y="222.01682" style="line-height:0%" xml:space="preserve"><tspan x="361.70575" y="222.01682" font-size="40px" style="line-height:1.25">R</tspan></text>
<text x="433.93134" y="221.99728" style="line-height:0%" xml:space="preserve"><tspan x="433.93134" y="221.99728" font-size="40px" style="line-height:1.25">G</tspan></text>
<text x="507.41403" y="222.01682" style="line-height:0%" xml:space="preserve"><tspan x="507.41403" y="222.01682" font-size="40px" style="line-height:1.25">B</tspan></text>
</g>
<text x="269.67419" y="118.98125" fill="#000000" font-family="sans-serif" letter-spacing="0px" stroke-width="1px" word-spacing="0px" style="line-height:0%" xml:space="preserve"><tspan x="269.67419" y="118.98125" font-size="20px" style="line-height:1.25">VERTEX ATTRIBUTES</tspan></text>
</g>
<g transform="translate(0 2.9837)">
<g>
<rect x="18.146" y="524.17" width="139.3" height="319.94" color="#000000" color-rendering="auto" fill="#dad90b" fill-opacity=".37386" fill-rule="evenodd" image-rendering="auto" opacity=".287" shape-rendering="auto" solid-color="#000000" stroke="#000" stroke-width=".5191" style="isolation:auto;mix-blend-mode:normal"/>
<text x="38.16304" y="567.07745" fill="#000000" font-family="sans-serif" letter-spacing="0px" stroke-width="1px" word-spacing="0px" style="line-height:0%" xml:space="preserve"><tspan x="38.16304" y="567.07745" font-size="40px" style="line-height:1.25">X</tspan></text>
<text x="109.039" y="567.07745" fill="#000000" font-family="sans-serif" letter-spacing="0px" stroke-width="1px" word-spacing="0px" style="line-height:0%" xml:space="preserve"><tspan x="109.039" y="567.07745" font-size="40px" style="line-height:1.25">Y</tspan></text>
<path d="m17.887 578.19h139.82" fill="none" stroke="#000" stroke-width=".5251px"/>
<path d="m85.294 523.91v320.46" fill="none" stroke="#000" stroke-width=".97752px"/>
<text x="38.16304" y="622.6358" fill="#000000" font-family="sans-serif" letter-spacing="0px" stroke-width="1px" word-spacing="0px" style="line-height:0%" xml:space="preserve"><tspan x="38.16304" y="622.6358" font-size="40px" style="line-height:1.25">X</tspan></text>
<text x="109.039" y="622.6358" fill="#000000" font-family="sans-serif" letter-spacing="0px" stroke-width="1px" word-spacing="0px" style="line-height:0%" xml:space="preserve"><tspan x="109.039" y="622.6358" font-size="40px" style="line-height:1.25">Y</tspan></text>
<path d="m17.887 631.53h139.82" fill="none" stroke="#000" stroke-width=".5251px"/>
<path d="m17.887 684.86h139.82" fill="none" stroke="#000" stroke-width=".5251px"/>
<path d="m17.887 738.2h139.82" fill="none" stroke="#000" stroke-width=".5251px"/>
<path d="m17.887 791.53h139.82" fill="none" stroke="#000" stroke-width=".5251px"/>
<text x="38.568039" y="672.77325" fill="#000000" font-family="sans-serif" letter-spacing="0px" stroke-width="1px" word-spacing="0px" style="line-height:0%" xml:space="preserve"><tspan x="38.568039" y="672.77325" font-size="40px" style="line-height:1.25">X</tspan></text>
<text x="109.444" y="672.77325" fill="#000000" font-family="sans-serif" letter-spacing="0px" stroke-width="1px" word-spacing="0px" style="line-height:0%" xml:space="preserve"><tspan x="109.444" y="672.77325" font-size="40px" style="line-height:1.25">Y</tspan></text>
<text x="38.568039" y="726.10931" fill="#000000" font-family="sans-serif" letter-spacing="0px" stroke-width="1px" word-spacing="0px" style="line-height:0%" xml:space="preserve"><tspan x="38.568039" y="726.10931" font-size="40px" style="line-height:1.25">X</tspan></text>
<text x="109.444" y="726.10931" fill="#000000" font-family="sans-serif" letter-spacing="0px" stroke-width="1px" word-spacing="0px" style="line-height:0%" xml:space="preserve"><tspan x="109.444" y="726.10931" font-size="40px" style="line-height:1.25">Y</tspan></text>
<text x="38.568039" y="779.44531" fill="#000000" font-family="sans-serif" letter-spacing="0px" stroke-width="1px" word-spacing="0px" style="line-height:0%" xml:space="preserve"><tspan x="38.568039" y="779.44531" font-size="40px" style="line-height:1.25">X</tspan></text>
<text x="109.444" y="779.44531" fill="#000000" font-family="sans-serif" letter-spacing="0px" stroke-width="1px" word-spacing="0px" style="line-height:0%" xml:space="preserve"><tspan x="109.444" y="779.44531" font-size="40px" style="line-height:1.25">Y</tspan></text>
<text x="38.568039" y="830.82715" fill="#000000" font-family="sans-serif" letter-spacing="0px" stroke-width="1px" word-spacing="0px" style="line-height:0%" xml:space="preserve"><tspan x="38.568039" y="830.82715" font-size="40px" style="line-height:1.25">X</tspan></text>
<text x="109.444" y="830.82715" fill="#000000" font-family="sans-serif" letter-spacing="0px" stroke-width="1px" word-spacing="0px" style="line-height:0%" xml:space="preserve"><tspan x="109.444" y="830.82715" font-size="40px" style="line-height:1.25">Y</tspan></text>
<text x="37.677185" y="515.55963" fill="#000000" font-family="sans-serif" letter-spacing="0px" stroke-width="1px" word-spacing="0px" style="line-height:0%" xml:space="preserve"><tspan x="37.677185" y="515.55963" font-size="20px" style="line-height:1.25">POSITION</tspan></text>
</g>
<g transform="translate(18.093)">
<rect x="254.79" y="524.18" width="143.32" height="319.93" color="#000000" color-rendering="auto" fill="#da0b9a" fill-opacity=".37386" fill-rule="evenodd" image-rendering="auto" opacity=".287" shape-rendering="auto" solid-color="#000000" stroke="#000" stroke-width=".52653" style="isolation:auto;mix-blend-mode:normal"/>
<text x="276.34006" y="566.79419" fill="#000000" font-family="sans-serif" letter-spacing="0px" stroke-width="1px" word-spacing="0px" style="line-height:0%" xml:space="preserve"><tspan x="276.34006" y="566.79419" font-size="40px" style="line-height:1.25">U</tspan></text>
<text x="350.23984" y="567.07739" fill="#000000" font-family="sans-serif" letter-spacing="0px" stroke-width="1px" word-spacing="0px" style="line-height:0%" xml:space="preserve"><tspan x="350.23984" y="567.07739" font-size="40px" style="line-height:1.25">V</tspan></text>
<path d="m254.53 578.19h143.85" fill="none" stroke="#000" stroke-width=".5326px"/>
<path d="m326.94 523.91v320.46" fill="none" stroke="#000" stroke-width=".97752px"/>
<text x="276.34006" y="622.3526" fill="#000000" font-family="sans-serif" letter-spacing="0px" stroke-width="1px" word-spacing="0px" style="line-height:0%" xml:space="preserve"><tspan x="276.34006" y="622.3526" font-size="40px" style="line-height:1.25">U</tspan></text>
<text x="350.23984" y="622.6358" fill="#000000" font-family="sans-serif" letter-spacing="0px" stroke-width="1px" word-spacing="0px" style="line-height:0%" xml:space="preserve"><tspan x="350.23984" y="622.6358" font-size="40px" style="line-height:1.25">V</tspan></text>
<path d="m254.53 631.53h143.85" fill="none" stroke="#000" stroke-width=".5326px"/>
<path d="m254.53 684.86h143.85" fill="none" stroke="#000" stroke-width=".5326px"/>
<path d="m254.53 738.2h143.85" fill="none" stroke="#000" stroke-width=".5326px"/>
<path d="m254.53 791.53h143.85" fill="none" stroke="#000" stroke-width=".5326px"/>
<text x="276.74509" y="672.49005" fill="#000000" font-family="sans-serif" letter-spacing="0px" stroke-width="1px" word-spacing="0px" style="line-height:0%" xml:space="preserve"><tspan x="276.74509" y="672.49005" font-size="40px" style="line-height:1.25">U</tspan></text>
<text x="350.64487" y="672.77325" fill="#000000" font-family="sans-serif" letter-spacing="0px" stroke-width="1px" word-spacing="0px" style="line-height:0%" xml:space="preserve"><tspan x="350.64487" y="672.77325" font-size="40px" style="line-height:1.25">V</tspan></text>
<text x="276.74509" y="725.82605" fill="#000000" font-family="sans-serif" letter-spacing="0px" stroke-width="1px" word-spacing="0px" style="line-height:0%" xml:space="preserve"><tspan x="276.74509" y="725.82605" font-size="40px" style="line-height:1.25">U</tspan></text>
<text x="350.64487" y="726.10925" fill="#000000" font-family="sans-serif" letter-spacing="0px" stroke-width="1px" word-spacing="0px" style="line-height:0%" xml:space="preserve"><tspan x="350.64487" y="726.10925" font-size="40px" style="line-height:1.25">V</tspan></text>
<text x="276.74509" y="779.16211" fill="#000000" font-family="sans-serif" letter-spacing="0px" stroke-width="1px" word-spacing="0px" style="line-height:0%" xml:space="preserve"><tspan x="276.74509" y="779.16211" font-size="40px" style="line-height:1.25">U</tspan></text>
<text x="350.64487" y="779.44531" fill="#000000" font-family="sans-serif" letter-spacing="0px" stroke-width="1px" word-spacing="0px" style="line-height:0%" xml:space="preserve"><tspan x="350.64487" y="779.44531" font-size="40px" style="line-height:1.25">V</tspan></text>
<text x="276.74509" y="830.54395" fill="#000000" font-family="sans-serif" letter-spacing="0px" stroke-width="1px" word-spacing="0px" style="line-height:0%" xml:space="preserve"><tspan x="276.74509" y="830.54395" font-size="40px" style="line-height:1.25">U</tspan></text>
<text x="350.64487" y="830.82715" fill="#000000" font-family="sans-serif" letter-spacing="0px" stroke-width="1px" word-spacing="0px" style="line-height:0%" xml:space="preserve"><tspan x="350.64487" y="830.82715" font-size="40px" style="line-height:1.25">V</tspan></text>
<text x="282.66769" y="515.55963" fill="#000000" font-family="sans-serif" letter-spacing="0px" stroke-width="1px" word-spacing="0px" style="line-height:0%" xml:space="preserve"><tspan x="282.66769" y="515.55963" font-size="20px" style="line-height:1.25">NORMAL</tspan></text>
</g>
<g>
<rect x="494.73" y="524.23" width="213.12" height="319.82" color="#000000" color-rendering="auto" fill="#24da0b" fill-opacity=".37386" fill-rule="evenodd" image-rendering="auto" opacity=".287" shape-rendering="auto" solid-color="#000000" stroke="#000" stroke-width=".64196" style="isolation:auto;mix-blend-mode:normal"/>
<text x="515.57831" y="567.07739" fill="#000000" font-family="sans-serif" letter-spacing="0px" stroke-width="1px" word-spacing="0px" style="line-height:0%" xml:space="preserve"><tspan x="515.57831" y="567.07739" font-size="40px" style="line-height:1.25">R</tspan></text>
<text x="587.80389" y="567.05786" fill="#000000" font-family="sans-serif" letter-spacing="0px" stroke-width="1px" word-spacing="0px" style="line-height:0%" xml:space="preserve"><tspan x="587.80389" y="567.05786" font-size="40px" style="line-height:1.25">G</tspan></text>
<text x="661.28668" y="567.07739" fill="#000000" font-family="sans-serif" letter-spacing="0px" stroke-width="1px" word-spacing="0px" style="line-height:0%" xml:space="preserve"><tspan x="661.28668" y="567.07739" font-size="40px" style="line-height:1.25">B</tspan></text>
<path d="m494.41 578.19h213.76" fill="none" stroke="#000" stroke-width=".64926px"/>
<path d="m638.75 523.91v319.5" fill="none" stroke="#000" stroke-width=".97752px"/>
<path d="m566.82 523.91v320.46" fill="none" stroke="#000" stroke-width=".97752px"/>
<text x="515.57831" y="622.6358" fill="#000000" font-family="sans-serif" letter-spacing="0px" stroke-width="1px" word-spacing="0px" style="line-height:0%" xml:space="preserve"><tspan x="515.57831" y="622.6358" font-size="40px" style="line-height:1.25">R</tspan></text>
<text x="587.80389" y="622.61627" fill="#000000" font-family="sans-serif" letter-spacing="0px" stroke-width="1px" word-spacing="0px" style="line-height:0%" xml:space="preserve"><tspan x="587.80389" y="622.61627" font-size="40px" style="line-height:1.25">G</tspan></text>
<text x="661.28668" y="622.6358" fill="#000000" font-family="sans-serif" letter-spacing="0px" stroke-width="1px" word-spacing="0px" style="line-height:0%" xml:space="preserve"><tspan x="661.28668" y="622.6358" font-size="40px" style="line-height:1.25">B</tspan></text>
<path d="m494.41 631.53h213.76" fill="none" stroke="#000" stroke-width=".64926px"/>
<path d="m494.41 684.86h213.76" fill="none" stroke="#000" stroke-width=".64926px"/>
<path d="m494.41 738.2h213.76" fill="none" stroke="#000" stroke-width=".64926px"/>
<path d="m494.41 791.53h213.76" fill="none" stroke="#000" stroke-width=".64926px"/>
<text x="515.98334" y="672.77325" fill="#000000" font-family="sans-serif" letter-spacing="0px" stroke-width="1px" word-spacing="0px" style="line-height:0%" xml:space="preserve"><tspan x="515.98334" y="672.77325" font-size="40px" style="line-height:1.25">R</tspan></text>
<text x="588.20892" y="672.75372" fill="#000000" font-family="sans-serif" letter-spacing="0px" stroke-width="1px" word-spacing="0px" style="line-height:0%" xml:space="preserve"><tspan x="588.20892" y="672.75372" font-size="40px" style="line-height:1.25">G</tspan></text>
<text x="661.69159" y="672.77325" fill="#000000" font-family="sans-serif" letter-spacing="0px" stroke-width="1px" word-spacing="0px" style="line-height:0%" xml:space="preserve"><tspan x="661.69159" y="672.77325" font-size="40px" style="line-height:1.25">B</tspan></text>
<text x="515.98334" y="726.10925" fill="#000000" font-family="sans-serif" letter-spacing="0px" stroke-width="1px" word-spacing="0px" style="line-height:0%" xml:space="preserve"><tspan x="515.98334" y="726.10925" font-size="40px" style="line-height:1.25">R</tspan></text>
<text x="588.20892" y="726.08972" fill="#000000" font-family="sans-serif" letter-spacing="0px" stroke-width="1px" word-spacing="0px" style="line-height:0%" xml:space="preserve"><tspan x="588.20892" y="726.08972" font-size="40px" style="line-height:1.25">G</tspan></text>
<text x="661.69159" y="726.10925" fill="#000000" font-family="sans-serif" letter-spacing="0px" stroke-width="1px" word-spacing="0px" style="line-height:0%" xml:space="preserve"><tspan x="661.69159" y="726.10925" font-size="40px" style="line-height:1.25">B</tspan></text>
<text x="515.98334" y="779.44531" fill="#000000" font-family="sans-serif" letter-spacing="0px" stroke-width="1px" word-spacing="0px" style="line-height:0%" xml:space="preserve"><tspan x="515.98334" y="779.44531" font-size="40px" style="line-height:1.25">R</tspan></text>
<text x="588.20892" y="779.42578" fill="#000000" font-family="sans-serif" letter-spacing="0px" stroke-width="1px" word-spacing="0px" style="line-height:0%" xml:space="preserve"><tspan x="588.20892" y="779.42578" font-size="40px" style="line-height:1.25">G</tspan></text>
<text x="661.69159" y="779.44531" fill="#000000" font-family="sans-serif" letter-spacing="0px" stroke-width="1px" word-spacing="0px" style="line-height:0%" xml:space="preserve"><tspan x="661.69159" y="779.44531" font-size="40px" style="line-height:1.25">B</tspan></text>
<text x="515.98334" y="830.82709" fill="#000000" font-family="sans-serif" letter-spacing="0px" stroke-width="1px" word-spacing="0px" style="line-height:0%" xml:space="preserve"><tspan x="515.98334" y="830.82709" font-size="40px" style="line-height:1.25">R</tspan></text>
<text x="588.20892" y="830.80756" fill="#000000" font-family="sans-serif" letter-spacing="0px" stroke-width="1px" word-spacing="0px" style="line-height:0%" xml:space="preserve"><tspan x="588.20892" y="830.80756" font-size="40px" style="line-height:1.25">G</tspan></text>
<text x="661.69159" y="830.82709" fill="#000000" font-family="sans-serif" letter-spacing="0px" stroke-width="1px" word-spacing="0px" style="line-height:0%" xml:space="preserve"><tspan x="661.69159" y="830.82709" font-size="40px" style="line-height:1.25">B</tspan></text>
<text x="567.61346" y="515.55963" fill="#000000" font-family="sans-serif" letter-spacing="0px" stroke-width="1px" word-spacing="0px" style="line-height:0%" xml:space="preserve"><tspan x="567.61346" y="515.55963" font-size="20px" style="line-height:1.25">COLOR</tspan></text>
</g>
</g>
<g transform="translate(0 -57.074)">
<rect x="-19.221" y="983.71" width="67.535" height="320.1" color="#000000" color-rendering="auto" fill="#dad90b" fill-opacity=".37386" fill-rule="evenodd" image-rendering="auto" opacity=".287" shape-rendering="auto" solid-color="#000000" stroke="#000" stroke-width=".36153" style="isolation:auto;mix-blend-mode:normal"/>
<text x="0.87433738" y="1026.6969" fill="#000000" font-family="sans-serif" letter-spacing="0px" stroke-width="1px" word-spacing="0px" style="line-height:0%" xml:space="preserve"><tspan x="0.87433738" y="1026.6969" font-size="40px" style="line-height:1.25">X</tspan></text>
<path d="m-19.402 1037.8h67.896" fill="none" stroke="#000" stroke-width=".36591px"/>
<text x="0.87433738" y="1082.2551" fill="#000000" font-family="sans-serif" letter-spacing="0px" stroke-width="1px" word-spacing="0px" style="line-height:0%" xml:space="preserve"><tspan x="0.87433738" y="1082.2551" font-size="40px" style="line-height:1.25">X</tspan></text>
<path d="m-19.402 1091.1h67.896" fill="none" stroke="#000" stroke-width=".36591px"/>
<path d="m-19.402 1144.5h67.896" fill="none" stroke="#000" stroke-width=".36591px"/>
<path d="m-19.402 1197.8h67.896" fill="none" stroke="#000" stroke-width=".36591px"/>
<path d="m-19.402 1251.2h67.896" fill="none" stroke="#000" stroke-width=".36591px"/>
<text x="1.2793361" y="1132.3926" fill="#000000" font-family="sans-serif" letter-spacing="0px" stroke-width="1px" word-spacing="0px" style="line-height:0%" xml:space="preserve"><tspan x="1.2793361" y="1132.3926" font-size="40px" style="line-height:1.25">X</tspan></text>
<text x="1.2793361" y="1185.7286" fill="#000000" font-family="sans-serif" letter-spacing="0px" stroke-width="1px" word-spacing="0px" style="line-height:0%" xml:space="preserve"><tspan x="1.2793361" y="1185.7286" font-size="40px" style="line-height:1.25">X</tspan></text>
<text x="1.2793361" y="1239.0647" fill="#000000" font-family="sans-serif" letter-spacing="0px" stroke-width="1px" word-spacing="0px" style="line-height:0%" xml:space="preserve"><tspan x="1.2793361" y="1239.0647" font-size="40px" style="line-height:1.25">X</tspan></text>
<text x="1.2793361" y="1290.4465" fill="#000000" font-family="sans-serif" letter-spacing="0px" stroke-width="1px" word-spacing="0px" style="line-height:0%" xml:space="preserve"><tspan x="1.2793361" y="1290.4465" font-size="40px" style="line-height:1.25">X</tspan></text>
<text x="-12.279982" y="975.17902" fill="#000000" font-family="sans-serif" letter-spacing="0px" stroke-width="1px" word-spacing="0px" style="line-height:0%" xml:space="preserve"><tspan x="-12.279982" y="975.17902" dy="0 0 0 4" font-size="20px" style="line-height:1.25">POSx</tspan></text>
<rect x="77.467" y="983.72" width="67.548" height="320.09" color="#000000" color-rendering="auto" fill="#dad90b" fill-opacity=".37386" fill-rule="evenodd" image-rendering="auto" opacity=".287" shape-rendering="auto" solid-color="#000000" stroke="#000" stroke-width=".36156" style="isolation:auto;mix-blend-mode:normal"/>
<text x="99.024422" y="1026.6968" fill="#000000" font-family="sans-serif" letter-spacing="0px" stroke-width="1px" word-spacing="0px" style="line-height:0%" xml:space="preserve"><tspan x="99.024422" y="1026.6968" font-size="40px" style="line-height:1.25">Y</tspan></text>
<path d="m77.287 1037.8h67.896" fill="none" stroke="#000" stroke-width=".36591px"/>
<text x="99.024422" y="1082.255" fill="#000000" font-family="sans-serif" letter-spacing="0px" stroke-width="1px" word-spacing="0px" style="line-height:0%" xml:space="preserve"><tspan x="99.024422" y="1082.255" font-size="40px" style="line-height:1.25">Y</tspan></text>
<path d="m77.287 1091.1h67.896" fill="none" stroke="#000" stroke-width=".36591px"/>
<path d="m77.287 1144.5h67.896" fill="none" stroke="#000" stroke-width=".36591px"/>
<path d="m77.287 1197.8h67.896" fill="none" stroke="#000" stroke-width=".36591px"/>
<path d="m77.287 1251.2h67.896" fill="none" stroke="#000" stroke-width=".36591px"/>
<text x="99.42942" y="1132.3925" fill="#000000" font-family="sans-serif" letter-spacing="0px" stroke-width="1px" word-spacing="0px" style="line-height:0%" xml:space="preserve"><tspan x="99.42942" y="1132.3925" font-size="40px" style="line-height:1.25">Y</tspan></text>
<text x="99.42942" y="1185.7285" fill="#000000" font-family="sans-serif" letter-spacing="0px" stroke-width="1px" word-spacing="0px" style="line-height:0%" xml:space="preserve"><tspan x="99.42942" y="1185.7285" font-size="40px" style="line-height:1.25">Y</tspan></text>
<text x="99.42942" y="1239.0646" fill="#000000" font-family="sans-serif" letter-spacing="0px" stroke-width="1px" word-spacing="0px" style="line-height:0%" xml:space="preserve"><tspan x="99.42942" y="1239.0646" font-size="40px" style="line-height:1.25">Y</tspan></text>
<text x="99.42942" y="1290.4464" fill="#000000" font-family="sans-serif" letter-spacing="0px" stroke-width="1px" word-spacing="0px" style="line-height:0%" xml:space="preserve"><tspan x="99.42942" y="1290.4464" font-size="40px" style="line-height:1.25">Y</tspan></text>
<text x="84.385765" y="975.17902" fill="#000000" font-family="sans-serif" letter-spacing="0px" stroke-width="1px" word-spacing="0px" style="line-height:0%" xml:space="preserve"><tspan x="84.385765" y="975.17902" dy="0 0 0 4" font-size="20px" style="line-height:1.25">POSy</tspan></text>
</g>
<g transform="translate(19.893 -57.074)">
<g>
<rect x="248.48" y="983.72" width="71.551" height="320.09" color="#000000" color-rendering="auto" fill="#da0b9a" fill-opacity=".37386" fill-rule="evenodd" image-rendering="auto" opacity=".287" shape-rendering="auto" solid-color="#000000" stroke="#000" stroke-width=".37212" style="isolation:auto;mix-blend-mode:normal"/>
<text x="270.10706" y="1026.4136" fill="#000000" font-family="sans-serif" letter-spacing="0px" stroke-width="1px" word-spacing="0px" style="line-height:0%" xml:space="preserve"><tspan x="270.10706" y="1026.4136" font-size="40px" style="line-height:1.25">U</tspan></text>
<path d="m248.3 1037.8h71.923" fill="none" stroke="#000" stroke-width=".37661px"/>
<text x="270.10706" y="1081.9719" fill="#000000" font-family="sans-serif" letter-spacing="0px" stroke-width="1px" word-spacing="0px" style="line-height:0%" xml:space="preserve"><tspan x="270.10706" y="1081.9719" font-size="40px" style="line-height:1.25">U</tspan></text>
<path d="m248.3 1091.1h71.923" fill="none" stroke="#000" stroke-width=".37661px"/>
<path d="m248.3 1144.5h71.923" fill="none" stroke="#000" stroke-width=".37661px"/>
<path d="m248.3 1197.8h71.923" fill="none" stroke="#000" stroke-width=".37661px"/>
<path d="m248.3 1251.2h71.923" fill="none" stroke="#000" stroke-width=".37661px"/>
<text x="270.51208" y="1132.1094" fill="#000000" font-family="sans-serif" letter-spacing="0px" stroke-width="1px" word-spacing="0px" style="line-height:0%" xml:space="preserve"><tspan x="270.51208" y="1132.1094" font-size="40px" style="line-height:1.25">U</tspan></text>
<text x="270.51208" y="1185.4454" fill="#000000" font-family="sans-serif" letter-spacing="0px" stroke-width="1px" word-spacing="0px" style="line-height:0%" xml:space="preserve"><tspan x="270.51208" y="1185.4454" font-size="40px" style="line-height:1.25">U</tspan></text>
<text x="270.51208" y="1238.7815" fill="#000000" font-family="sans-serif" letter-spacing="0px" stroke-width="1px" word-spacing="0px" style="line-height:0%" xml:space="preserve"><tspan x="270.51208" y="1238.7815" font-size="40px" style="line-height:1.25">U</tspan></text>
<text x="270.51208" y="1290.1633" fill="#000000" font-family="sans-serif" letter-spacing="0px" stroke-width="1px" word-spacing="0px" style="line-height:0%" xml:space="preserve"><tspan x="270.51208" y="1290.1633" font-size="40px" style="line-height:1.25">U</tspan></text>
<text x="255.54111" y="975.17902" fill="#000000" font-family="sans-serif" letter-spacing="0px" stroke-width="1px" word-spacing="0px" style="line-height:0%" xml:space="preserve"><tspan x="255.54111" y="975.17902" dy="0 0 0 4" font-size="20px" style="line-height:1.25">NORu</tspan></text>
<rect x="351.77" y="983.72" width="70.576" height="320.09" color="#000000" color-rendering="auto" fill="#da0b9a" fill-opacity=".37386" fill-rule="evenodd" image-rendering="auto" opacity=".287" shape-rendering="auto" solid-color="#000000" stroke="#000" stroke-width=".36958" style="isolation:auto;mix-blend-mode:normal"/>
<text x="374.39703" y="1026.6968" fill="#000000" font-family="sans-serif" letter-spacing="0px" stroke-width="1px" word-spacing="0px" style="line-height:0%" xml:space="preserve"><tspan x="374.39703" y="1026.6968" font-size="40px" style="line-height:1.25">V</tspan></text>
<path d="m351.59 1037.8h70.945" fill="none" stroke="#000" stroke-width=".37404px"/>
<text x="374.39703" y="1082.2551" fill="#000000" font-family="sans-serif" letter-spacing="0px" stroke-width="1px" word-spacing="0px" style="line-height:0%" xml:space="preserve"><tspan x="374.39703" y="1082.2551" font-size="40px" style="line-height:1.25">V</tspan></text>
<path d="m351.59 1091.1h70.945" fill="none" stroke="#000" stroke-width=".37404px"/>
<path d="m351.59 1144.5h70.945" fill="none" stroke="#000" stroke-width=".37404px"/>
<path d="m351.59 1197.8h70.945" fill="none" stroke="#000" stroke-width=".37404px"/>
<path d="m351.59 1251.2h70.945" fill="none" stroke="#000" stroke-width=".37404px"/>
<text x="374.80206" y="1132.3926" fill="#000000" font-family="sans-serif" letter-spacing="0px" stroke-width="1px" word-spacing="0px" style="line-height:0%" xml:space="preserve"><tspan x="374.80206" y="1132.3926" font-size="40px" style="line-height:1.25">V</tspan></text>
<text x="374.80206" y="1185.7286" fill="#000000" font-family="sans-serif" letter-spacing="0px" stroke-width="1px" word-spacing="0px" style="line-height:0%" xml:space="preserve"><tspan x="374.80206" y="1185.7286" font-size="40px" style="line-height:1.25">V</tspan></text>
<text x="374.80206" y="1239.0647" fill="#000000" font-family="sans-serif" letter-spacing="0px" stroke-width="1px" word-spacing="0px" style="line-height:0%" xml:space="preserve"><tspan x="374.80206" y="1239.0647" font-size="40px" style="line-height:1.25">V</tspan></text>
<text x="374.80206" y="1290.4465" fill="#000000" font-family="sans-serif" letter-spacing="0px" stroke-width="1px" word-spacing="0px" style="line-height:0%" xml:space="preserve"><tspan x="374.80206" y="1290.4465" font-size="40px" style="line-height:1.25">V</tspan></text>
<text x="358.15256" y="975.17908" fill="#000000" font-family="sans-serif" letter-spacing="0px" stroke-width="1px" word-spacing="0px" style="line-height:0%" xml:space="preserve"><tspan x="358.15256" y="975.17908" dy="0 0 0 4" font-size="20px" style="line-height:1.25">NORv</tspan></text>
</g>
</g>
<g transform="translate(0 -57.074)">
<rect x="519.28" y="983.72" width="71.551" height="320.09" color="#000000" color-rendering="auto" fill="#24da0b" fill-opacity=".37386" fill-rule="evenodd" image-rendering="auto" opacity=".287" shape-rendering="auto" solid-color="#000000" stroke="#000" stroke-width=".37212" style="isolation:auto;mix-blend-mode:normal"/>
<text x="540.26514" y="1026.6968" fill="#000000" font-family="sans-serif" letter-spacing="0px" stroke-width="1px" word-spacing="0px" style="line-height:0%" xml:space="preserve"><tspan x="540.26514" y="1026.6968" font-size="40px" style="line-height:1.25">R</tspan></text>
<path d="m519.1 1037.8h71.923" fill="none" stroke="#000" stroke-width=".37661px"/>
<text x="540.26514" y="1082.2552" fill="#000000" font-family="sans-serif" letter-spacing="0px" stroke-width="1px" word-spacing="0px" style="line-height:0%" xml:space="preserve"><tspan x="540.26514" y="1082.2552" font-size="40px" style="line-height:1.25">R</tspan></text>
<path d="m519.1 1091.1h71.923" fill="none" stroke="#000" stroke-width=".37661px"/>
<path d="m519.1 1144.5h71.923" fill="none" stroke="#000" stroke-width=".37661px"/>
<path d="m519.1 1197.8h71.923" fill="none" stroke="#000" stroke-width=".37661px"/>
<path d="m519.1 1251.2h71.923" fill="none" stroke="#000" stroke-width=".37661px"/>
<text x="540.67017" y="1132.3927" fill="#000000" font-family="sans-serif" letter-spacing="0px" stroke-width="1px" word-spacing="0px" style="line-height:0%" xml:space="preserve"><tspan x="540.67017" y="1132.3927" font-size="40px" style="line-height:1.25">R</tspan></text>
<text x="540.67017" y="1185.7286" fill="#000000" font-family="sans-serif" letter-spacing="0px" stroke-width="1px" word-spacing="0px" style="line-height:0%" xml:space="preserve"><tspan x="540.67017" y="1185.7286" font-size="40px" style="line-height:1.25">R</tspan></text>
<text x="540.67017" y="1239.0647" fill="#000000" font-family="sans-serif" letter-spacing="0px" stroke-width="1px" word-spacing="0px" style="line-height:0%" xml:space="preserve"><tspan x="540.67017" y="1239.0647" font-size="40px" style="line-height:1.25">R</tspan></text>
<text x="540.67017" y="1290.4465" fill="#000000" font-family="sans-serif" letter-spacing="0px" stroke-width="1px" word-spacing="0px" style="line-height:0%" xml:space="preserve"><tspan x="540.67017" y="1290.4465" font-size="40px" style="line-height:1.25">R</tspan></text>
<text x="529.95715" y="975.17902" fill="#000000" font-family="sans-serif" letter-spacing="0px" stroke-width="1px" word-spacing="0px" style="line-height:0%" xml:space="preserve"><tspan x="529.95715" y="975.17902" dy="0 0 0 4" font-size="20px" style="line-height:1.25">COLr</tspan></text>
<rect x="614.72" y="983.72" width="70.576" height="320.09" color="#000000" color-rendering="auto" fill="#24da0b" fill-opacity=".37386" fill-rule="evenodd" image-rendering="auto" opacity=".287" shape-rendering="auto" solid-color="#000000" stroke="#000" stroke-width=".36958" style="isolation:auto;mix-blend-mode:normal"/>
<text x="635.02917" y="1026.6772" fill="#000000" font-family="sans-serif" letter-spacing="0px" stroke-width="1px" word-spacing="0px" style="line-height:0%" xml:space="preserve"><tspan x="635.02917" y="1026.6772" font-size="40px" style="line-height:1.25">G</tspan></text>
<path d="m614.54 1037.8h70.945" fill="none" stroke="#000" stroke-width=".37404px"/>
<text x="635.02917" y="1082.2357" fill="#000000" font-family="sans-serif" letter-spacing="0px" stroke-width="1px" word-spacing="0px" style="line-height:0%" xml:space="preserve"><tspan x="635.02917" y="1082.2357" font-size="40px" style="line-height:1.25">G</tspan></text>
<path d="m614.54 1091.1h70.945" fill="none" stroke="#000" stroke-width=".37404px"/>
<path d="m614.54 1144.5h70.945" fill="none" stroke="#000" stroke-width=".37404px"/>
<path d="m614.54 1197.8h70.945" fill="none" stroke="#000" stroke-width=".37404px"/>
<path d="m614.54 1251.2h70.945" fill="none" stroke="#000" stroke-width=".37404px"/>
<text x="635.4342" y="1132.3732" fill="#000000" font-family="sans-serif" letter-spacing="0px" stroke-width="1px" word-spacing="0px" style="line-height:0%" xml:space="preserve"><tspan x="635.4342" y="1132.3732" font-size="40px" style="line-height:1.25">G</tspan></text>
<text x="635.4342" y="1185.7091" fill="#000000" font-family="sans-serif" letter-spacing="0px" stroke-width="1px" word-spacing="0px" style="line-height:0%" xml:space="preserve"><tspan x="635.4342" y="1185.7091" font-size="40px" style="line-height:1.25">G</tspan></text>
<text x="635.4342" y="1239.0452" fill="#000000" font-family="sans-serif" letter-spacing="0px" stroke-width="1px" word-spacing="0px" style="line-height:0%" xml:space="preserve"><tspan x="635.4342" y="1239.0452" font-size="40px" style="line-height:1.25">G</tspan></text>
<text x="635.4342" y="1290.427" fill="#000000" font-family="sans-serif" letter-spacing="0px" stroke-width="1px" word-spacing="0px" style="line-height:0%" xml:space="preserve"><tspan x="635.4342" y="1290.427" font-size="40px" style="line-height:1.25">G</tspan></text>
<text x="623.57904" y="975.17902" fill="#000000" font-family="sans-serif" letter-spacing="0px" stroke-width="1px" word-spacing="0px" style="line-height:0%" xml:space="preserve"><tspan x="623.57904" y="975.17902" dy="0 0 0 4" font-size="20px" style="line-height:1.25">COLg</tspan></text>
<rect x="707.58" y="983.71" width="68.575" height="320.1" color="#000000" color-rendering="auto" fill="#24da0b" fill-opacity=".37386" fill-rule="evenodd" image-rendering="auto" opacity=".287" shape-rendering="auto" solid-color="#000000" stroke="#000" stroke-width=".3643" style="isolation:auto;mix-blend-mode:normal"/>
<text x="729.44849" y="1026.6968" fill="#000000" font-family="sans-serif" letter-spacing="0px" stroke-width="1px" word-spacing="0px" style="line-height:0%" xml:space="preserve"><tspan x="729.44849" y="1026.6968" font-size="40px" style="line-height:1.25">B</tspan></text>
<path d="m707.4 1037.8h68.939" fill="none" stroke="#000" stroke-width=".36871px"/>
<text x="729.44849" y="1082.2552" fill="#000000" font-family="sans-serif" letter-spacing="0px" stroke-width="1px" word-spacing="0px" style="line-height:0%" xml:space="preserve"><tspan x="729.44849" y="1082.2552" font-size="40px" style="line-height:1.25">B</tspan></text>
<path d="m707.4 1091.1h68.939" fill="none" stroke="#000" stroke-width=".36871px"/>
<path d="m707.4 1144.5h68.939" fill="none" stroke="#000" stroke-width=".36871px"/>
<path d="m707.4 1197.8h68.939" fill="none" stroke="#000" stroke-width=".36871px"/>
<path d="m707.4 1251.2h68.939" fill="none" stroke="#000" stroke-width=".36871px"/>
<text x="729.85339" y="1132.3927" fill="#000000" font-family="sans-serif" letter-spacing="0px" stroke-width="1px" word-spacing="0px" style="line-height:0%" xml:space="preserve"><tspan x="729.85339" y="1132.3927" font-size="40px" style="line-height:1.25">B</tspan></text>
<text x="729.85339" y="1185.7286" fill="#000000" font-family="sans-serif" letter-spacing="0px" stroke-width="1px" word-spacing="0px" style="line-height:0%" xml:space="preserve"><tspan x="729.85339" y="1185.7286" font-size="40px" style="line-height:1.25">B</tspan></text>
<text x="729.85339" y="1239.0647" fill="#000000" font-family="sans-serif" letter-spacing="0px" stroke-width="1px" word-spacing="0px" style="line-height:0%" xml:space="preserve"><tspan x="729.85339" y="1239.0647" font-size="40px" style="line-height:1.25">B</tspan></text>
<text x="729.85339" y="1290.4465" fill="#000000" font-family="sans-serif" letter-spacing="0px" stroke-width="1px" word-spacing="0px" style="line-height:0%" xml:space="preserve"><tspan x="729.85339" y="1290.4465" font-size="40px" style="line-height:1.25">B</tspan></text>
<text x="715.07416" y="975.17902" fill="#000000" font-family="sans-serif" letter-spacing="0px" stroke-width="1px" word-spacing="0px" style="line-height:0%" xml:space="preserve"><tspan x="715.07416" y="975.17902" dy="0 0 0 4" font-size="20px" style="line-height:1.25">COLb</tspan></text>
</g>
<path d="m-398.44 475.75h1181.9" fill="none" stroke="#000" stroke-dasharray="8, 8"/>
<path d="m-398.44 875.31h1181.9" fill="none" stroke="#000" stroke-dasharray="8, 8"/>
<text x="-234.84044" y="262.8786" fill="#000000" font-family="sans-serif" font-size="40px" letter-spacing="0px" stroke-width="1px" text-align="center" text-anchor="middle" word-spacing="0px" style="line-height:0%" xml:space="preserve"><tspan x="-234.84044" y="262.8786" style="line-height:1.25">1 Vertex Buffer</tspan><tspan x="-234.84044" y="312.8786" style="line-height:1.25">for all attributes</tspan></text>
<text x="-237.54547" y="658.56372" fill="#000000" font-family="sans-serif" font-size="40px" letter-spacing="0px" stroke-width="1px" text-align="center" text-anchor="middle" word-spacing="0px" style="line-height:0%" xml:space="preserve"><tspan x="-237.54547" y="658.56372" style="line-height:1.25">1 Vertex Buffer</tspan><tspan x="-237.54547" y="708.56372" style="line-height:1.25">per attribute</tspan></text>
<text x="-237.18414" y="1058.1259" fill="#000000" font-family="sans-serif" font-size="40px" letter-spacing="0px" stroke-width="1px" text-align="center" text-anchor="middle" word-spacing="0px" style="line-height:0%" xml:space="preserve"><tspan x="-237.18414" y="1058.1259" style="line-height:1.25">1 Vertex Buffer</tspan><tspan x="-230.82672" y="1108.1259" style="line-height:1.25">per component </tspan></text>
</g>
</svg>
