<?xml version="1.0" encoding="UTF-8"?>
<svg width="1650" height="1203.9" version="1.2" xmlns="http://www.w3.org/2000/svg" xmlns:cc="http://creativecommons.org/ns#" xmlns:dc="http://purl.org/dc/elements/1.1/" xmlns:rdf="http://www.w3.org/1999/02/22-rdf-syntax-ns#" xmlns:xlink="http://www.w3.org/1999/xlink">
<defs>
<marker id="a" overflow="visible" orient="auto">
<path transform="matrix(-.8 0 0 -.8 -10 0)" d="m0 0 5-5-17.5 5 17.5 5-5-5z" fill-rule="evenodd" stroke="#000" stroke-width="1pt"/>
</marker>
<radialGradient id="c" cx="1802.9" cy="1347" r="150" gradientTransform="matrix(1 0 0 1.1667 4.0406 -545.73)" gradientUnits="userSpaceOnUse">
<stop stop-color="#4dbf00" offset="0"/>
<stop stop-color="#8f0000" stop-opacity="0" offset="0"/>
<stop stop-color="#64cd30" stop-opacity=".64286" offset="1"/>
</radialGradient>
<radialGradient id="b" cx="348" cy="1347" r="150" gradientTransform="matrix(1 0 0 1.1667 4.0406 -545.73)" gradientUnits="userSpaceOnUse" spreadMethod="reflect">
<stop stop-color="#8f0000" stop-opacity="0" offset="0"/>
<stop stop-color="#967200" offset="1"/>
</radialGradient>
<linearGradient id="d" x1="547.54" x2="1719.2" y1="521.96" y2="521.96" gradientTransform="matrix(1.2199 0 0 .94037 -557.58 -114.62)" gradientUnits="userSpaceOnUse">
<stop stop-color="#258def" offset="0"/>
<stop stop-opacity=".25" offset="1"/>
</linearGradient>
</defs>
<metadata>
<rdf:RDF>
<cc:Work rdf:about="">
<dc:format>image/svg+xml</dc:format>
<dc:type rdf:resource="http://purl.org/dc/dcmitype/StillImage"/>
<dc:title/>
</cc:Work>
</rdf:RDF>
</metadata>
<path d="m1534.8 376.22a709.77 356.22 0 0 1-1419.5 0 709.77 356.22 0 1 1 1419.5 0z" fill="url(#d)" stroke-width="0"/>
<text x="824.27734" y="386.90137" fill="#000000" font-family="DejaVu Sans" font-size="40px" letter-spacing="0px" text-align="center" text-anchor="middle" word-spacing="0px" style="line-height:125%" xml:space="preserve"><tspan x="824.27734" y="386.90137">Sytem Memory</tspan></text>
<g transform="translate(-12.563 35.632)">
<rect x="1135.3" y="278.56" width="198.42" height="190.57" fill="#a0df14" opacity=".39035" stroke="#000" stroke-linejoin="bevel" stroke-width="2.399"/>
<rect x="1114.3" y="295.33" width="198.42" height="190.57" fill="#a0df14" opacity=".39035" stroke="#000" stroke-linejoin="bevel" stroke-width="2.399"/>
<rect x="1093.3" y="312.09" width="198.42" height="190.57" fill="#a0df14" opacity=".39035" stroke="#000" stroke-linejoin="bevel" stroke-width="2.399"/>
<rect x="1072.3" y="328.86" width="198.42" height="190.57" fill="#a0df14" opacity=".39035" stroke="#000" stroke-linejoin="bevel" stroke-width="2.399"/>
<rect x="1051.3" y="345.63" width="198.42" height="190.57" fill="#a0df14" opacity=".39035" stroke="#000" stroke-linejoin="bevel" stroke-width="2.399"/>
<text x="1055.3109" y="452.28607" fill="#000000" font-family="Courier New" font-size="40px" letter-spacing="0px" word-spacing="0px" style="line-height:125%" xml:space="preserve"><tspan x="1055.3109" y="452.28607">CPU PTEs</tspan></text>
</g>
<g transform="translate(-69.132 -863.34)">
<g transform="translate(147.48 329.31)">
<rect x="264.37" y="717.64" width="236.18" height="284.13" fill="none" opacity=".39035" stroke="#000" stroke-linejoin="bevel" stroke-width="3.1959"/>
<path d="m263.06 764.24h238.84" fill="none" stroke="#000" stroke-width=".75293px"/>
<path d="m263.06 955.18h238.84" fill="none" stroke="#000" stroke-width=".75293px"/>
<path d="m263.06 907.44h238.84" fill="none" stroke="#000" stroke-width=".75293px"/>
<path d="m263.06 859.71h238.84" fill="none" stroke="#000" stroke-width=".75293px"/>
<rect x="264.9" y="663.05" width="235.17" height="51.385" fill="#a00000" opacity=".39035" stroke="#000" stroke-linejoin="bevel" stroke-width="3.6601"/>
<text transform="scale(1.2232 .81752)" x="268.94028" y="852.87573" fill="#000000" font-family="Courier New" font-size="36.601px" letter-spacing="0px" word-spacing="0px" style="line-height:125%" xml:space="preserve"><tspan x="268.94028" y="852.87573">GGTT</tspan></text>
<text x="317.66797" y="815.68176" fill="#000000" font-family="Courier New" font-size="72px" letter-spacing="0px" word-spacing="0px" style="line-height:125%" xml:space="preserve"><tspan x="317.66797" y="815.68176">...</tspan></text>
</g>
<text x="440.93152" y="1224.0201" fill="#000000" font-family="Courier New" font-size="40px" letter-spacing="0px" word-spacing="0px" style="line-height:125%" xml:space="preserve"><tspan x="440.93152" y="1224.0201">0x400000</tspan></text>
<text x="444.97571" y="1315.001" fill="#000000" font-family="Courier New" font-size="28px" letter-spacing="0px" word-spacing="0px" style="line-height:125%" xml:space="preserve"><tspan x="444.97571" y="1315.001">0xXXXXXXXX</tspan></text>
<text x="444.97571" y="1268.9648" fill="#000000" font-family="Courier New" font-size="28px" letter-spacing="0px" word-spacing="0px" style="line-height:125%" xml:space="preserve"><tspan x="444.97571" y="1268.9648">0xXXXXXXXX</tspan></text>
<text x="444.97571" y="1081.0764" fill="#000000" font-family="Courier New" font-size="28px" letter-spacing="0px" word-spacing="0px" style="line-height:125%" xml:space="preserve"><tspan x="444.97571" y="1081.0764">0xXXXXXXXX</tspan></text>
</g>
<flowRoot transform="translate(-255 -2.6862)" fill="#000000" font-family="Courier New" font-size="40px" letter-spacing="0px" word-spacing="0px" style="line-height:125%" xml:space="preserve"><flowRegion><rect x="218.19" y="1072.5" width="490.93" height="286.88"/></flowRegion><flowPara/></flowRoot>
<rect x="903.34" y="169.79" width="258.6" height="70.711" rx="0" ry="0" opacity=".39035" stroke="#000" stroke-linejoin="bevel"/>
<flowRoot transform="translate(839.29 -541.79)" fill="#000000" font-family="Courier New" font-size="40px" letter-spacing="0px" stroke="#000000" word-spacing="0px" writing-mode="lr" style="line-height:125%" xml:space="preserve"><flowRegion><rect x="72.731" y="720.96" width="246.48" height="52.528" fill="#000" stroke="#000"/></flowRegion><flowPara>0xdefaca7e</flowPara></flowRoot>
<g transform="translate(415.74 -590.59)">
<flowRoot transform="translate(369.72 -4.3637e-6)" fill="#000000" font-family="Courier New" font-size="40px" letter-spacing="0px" stroke="#000000" word-spacing="0px" style="line-height:125%" xml:space="preserve"><flowRegion><rect x="72.731" y="720.96" width="246.48" height="52.528" fill="#000" stroke="#000"/></flowRegion><flowPara>0x12345678</flowPara></flowRoot>
<rect x="433.06" y="711.56" width="258.6" height="70.711" rx="0" ry="0" opacity=".39035" stroke="#000" stroke-linejoin="bevel"/>
</g>
<g transform="translate(-426.73 -1121.9)">
<flowRoot transform="translate(1177.1 481.15)" fill="#000000" font-family="Courier New" font-size="40px" letter-spacing="0px" stroke="#000000" word-spacing="0px" style="line-height:125%" xml:space="preserve"><flowRegion><rect x="72.731" y="720.96" width="246.48" height="52.528" fill="#000" stroke="#000"/></flowRegion><flowPara>0x00000000</flowPara></flowRoot>
<rect x="1240.5" y="1192.7" width="258.6" height="70.711" rx="0" ry="0" opacity=".39035" stroke="#000" stroke-linejoin="bevel"/>
</g>
<path d="m824.41 106.13h237.29" fill="#0d0303" stroke="#f00" stroke-width="2.8515"/>
<path d="m860.76 154.61h237.29" fill="#0d0303" stroke="#f00" stroke-width="2.8515"/>
<g transform="translate(-255 -2.6862)">
<g transform="translate(72.959 -14.142)">
<rect x="203.96" y="852.69" width="296.15" height="346.15" rx="34.948" fill="url(#b)" stroke="#000" stroke-linejoin="bevel" stroke-width="3.8451"/>
<text x="351.57187" y="1037.1387" fill="#000000" font-family="Courier New" font-size="40px" letter-spacing="0px" text-align="center" text-anchor="middle" word-spacing="0px" style="line-height:125%" xml:space="preserve"><tspan x="351.57187" y="1037.1387">GEN GPU</tspan></text>
<g transform="translate(-1.8188 -140.05)">
<path d="m497.69 1011.4c-0.53277 1.0476-1.0558 2.111-1.6875 3.0938-0.88742 1.3806-1.8702 2.6688-2.9375 3.9062-1.0673 1.2375-2.2082 2.4238-3.4375 3.5-1.2293 1.0763-2.5329 2.0406-3.9062 2.9376-1.3733 0.8969-2.8131 1.7064-4.3125 2.4062s-3.0799 1.2967-4.6875 1.7812c-1.6076 0.4846-3.2396 0.8738-4.9375 1.125-1.6979 0.2513-3.4486 0.375-5.2188 0.375h-225.78c-1.7705 0-3.5206-0.1238-5.2188-0.375-1.6981-0.2511-3.361-0.6406-4.9688-1.125-1.6078-0.4843-3.1568-1.0816-4.6562-1.7812s-2.9392-1.5094-4.3125-2.4062c-1.3733-0.8969-2.677-1.8614-3.9062-2.9376-1.2292-1.0761-2.3703-2.2624-3.4375-3.5-1.0672-1.2375-2.0502-2.5253-2.9375-3.9062-0.49123-0.7645-0.88069-1.6021-1.3125-2.4062-2.4176 4.7617-3.875 10.087-3.875 15.812v12.656c0 16.966 11.929 31.028 27.906 34.281 2.182 0.4442 4.4693 0.667 6.7812 0.6874h225.72c2.4231 0 4.7803-0.2539 7.0625-0.7187s4.4988-1.1479 6.5938-2.0313c2.095-0.8833 4.076-1.963 5.9375-3.2187s3.6058-2.6995 5.1875-4.2813c1.5817-1.5817 2.9943-3.2947 4.25-5.1562s2.3354-3.8425 3.2188-5.9375 1.5664-4.3116 2.0312-6.5937c0.46483-2.2822 0.71875-4.6394 0.71875-7.0626v-15.781c0-1.6232-0.31675-3.1584-0.53125-4.7188-0.70379-3.0794-1.8904-5.9184-3.3438-8.625z" fill="none" stroke="#000" stroke-linejoin="bevel" stroke-width="4.1619"/>
<path d="m241.16 992.91c-13.664 0-25.355 7.8232-31.125 19.188 0.43181 0.8041 0.82127 1.6417 1.3125 2.4062 0.88726 1.3809 1.8703 2.6687 2.9375 3.9062 1.0672 1.2376 2.2083 2.4239 3.4375 3.5 1.2292 1.0762 2.533 2.0407 3.9062 2.9376 1.3733 0.8968 2.813 1.7066 4.3125 2.4062s3.0485 1.2969 4.6562 1.7812c1.6078 0.4844 3.2706 0.8739 4.9688 1.125 1.6981 0.2512 3.4482 0.375 5.2188 0.375h225.78c1.7702 0 3.5209-0.1237 5.2188-0.375 1.6979-0.2512 3.3299-0.6404 4.9375-1.125 1.6076-0.4845 3.1881-1.0814 4.6875-1.7812s2.9392-1.5093 4.3125-2.4062c1.3733-0.897 2.677-1.8613 3.9062-2.9376 1.2293-1.0762 2.3702-2.2625 3.4375-3.5 1.0673-1.2374 2.0501-2.5256 2.9375-3.9062 0.6317-0.9828 1.1547-2.0462 1.6875-3.0938-5.8939-10.976-17.341-18.5-30.719-18.5h-225.81z" fill="none" stroke="#000" stroke-linejoin="bevel" stroke-width="4.1619"/>
<text x="317.43454" y="1064.0647" fill="#000000" font-family="Courier New" font-size="40px" letter-spacing="0px" word-spacing="0px" style="line-height:125%" xml:space="preserve"><tspan x="317.43454" y="1064.0647">TLB</tspan></text>
</g>
</g>
<g transform="translate(-72.957 -26.264)">
<rect x="1658.9" y="852.69" width="296.15" height="346.15" rx="34.948" fill="url(#c)" stroke="#000" stroke-linejoin="bevel" stroke-width="3.8451"/>
<text x="1806.5156" y="1037.1387" fill="#000000" font-family="Courier New" font-size="40px" letter-spacing="0px" text-align="center" text-anchor="middle" word-spacing="0px" style="line-height:125%" xml:space="preserve"><tspan x="1806.5156" y="1037.1387">CPU</tspan></text>
<g transform="translate(1454.3 -140.05)">
<path d="m497.69 1011.4c-0.53277 1.0476-1.0558 2.111-1.6875 3.0938-0.88742 1.3806-1.8702 2.6688-2.9375 3.9062-1.0673 1.2375-2.2082 2.4238-3.4375 3.5-1.2293 1.0763-2.5329 2.0406-3.9062 2.9376-1.3733 0.8969-2.8131 1.7064-4.3125 2.4062s-3.0799 1.2967-4.6875 1.7812c-1.6076 0.4846-3.2396 0.8738-4.9375 1.125-1.6979 0.2513-3.4486 0.375-5.2188 0.375h-225.78c-1.7705 0-3.5206-0.1238-5.2188-0.375-1.6981-0.2511-3.361-0.6406-4.9688-1.125-1.6078-0.4843-3.1568-1.0816-4.6562-1.7812s-2.9392-1.5094-4.3125-2.4062c-1.3733-0.8969-2.677-1.8614-3.9062-2.9376-1.2292-1.0761-2.3703-2.2624-3.4375-3.5-1.0672-1.2375-2.0502-2.5253-2.9375-3.9062-0.49123-0.7645-0.88069-1.6021-1.3125-2.4062-2.4176 4.7617-3.875 10.087-3.875 15.812v12.656c0 16.966 11.929 31.028 27.906 34.281 2.182 0.4442 4.4693 0.667 6.7812 0.6874h225.72c2.4231 0 4.7803-0.2539 7.0625-0.7187s4.4988-1.1479 6.5938-2.0313c2.095-0.8833 4.076-1.963 5.9375-3.2187s3.6058-2.6995 5.1875-4.2813c1.5817-1.5817 2.9943-3.2947 4.25-5.1562s2.3354-3.8425 3.2188-5.9375 1.5664-4.3116 2.0312-6.5937c0.46483-2.2822 0.71875-4.6394 0.71875-7.0626v-15.781c0-1.6232-0.31675-3.1584-0.53125-4.7188-0.70379-3.0794-1.8904-5.9184-3.3438-8.625z" fill="none" stroke="#000" stroke-linejoin="bevel" stroke-width="4.1619"/>
<path d="m241.16 992.91c-13.664 0-25.355 7.8232-31.125 19.188 0.43181 0.8041 0.82127 1.6417 1.3125 2.4062 0.88726 1.3809 1.8703 2.6687 2.9375 3.9062 1.0672 1.2376 2.2083 2.4239 3.4375 3.5 1.2292 1.0762 2.533 2.0407 3.9062 2.9376 1.3733 0.8968 2.813 1.7066 4.3125 2.4062s3.0485 1.2969 4.6562 1.7812c1.6078 0.4844 3.2706 0.8739 4.9688 1.125 1.6981 0.2512 3.4482 0.375 5.2188 0.375h225.78c1.7702 0 3.5209-0.1237 5.2188-0.375 1.6979-0.2512 3.3299-0.6404 4.9375-1.125 1.6076-0.4845 3.1881-1.0814 4.6875-1.7812s2.9392-1.5093 4.3125-2.4062c1.3733-0.897 2.677-1.8613 3.9062-2.9376 1.2293-1.0762 2.3702-2.2625 3.4375-3.5 1.0673-1.2374 2.0501-2.5256 2.9375-3.9062 0.6317-0.9828 1.1547-2.0462 1.6875-3.0938-5.8939-10.976-17.341-18.5-30.719-18.5h-225.81z" fill="none" stroke="#000" stroke-linejoin="bevel" stroke-width="4.1619"/>
<text x="317.43454" y="1064.0647" fill="#000000" font-family="Courier New" font-size="40px" letter-spacing="0px" word-spacing="0px" style="line-height:125%" xml:space="preserve"><tspan x="317.43454" y="1064.0647">TLB</tspan></text>
</g>
</g>
</g>
<g transform="translate(-255 564.95)" font-family="Courier New" font-size="40px" letter-spacing="0px" word-spacing="0px">
<text x="593.90625" y="298.7886" fill="#ff0000" style="line-height:125%" xml:space="preserve"><tspan x="593.90625" y="298.7886">/* Write pattern with GPU (pwrite) */</tspan><tspan x="593.90625" y="348.7886">write_gpu(0x3000, 0x12345678);</tspan><tspan x="593.90625" y="398.7886"/></text>
<flowRoot transform="translate(196.65 -331.94)" fill="#009e00" text-align="end" text-anchor="end" style="line-height:125%" xml:space="preserve"><flowRegion><rect x="299.01" y="789.65" width="1076.8" height="153.54" fill="#009e00"/></flowRegion><flowPara>/* Get the CPU mapping for it */</flowPara><flowPara>uint32_t *cpu_mapping = mmap_gpu(0x3000);</flowPara><flowPara>*cpu_mapping = 0xdefaca7e</flowPara></flowRoot>
</g>
<g transform="translate(-255 -2.6862)" fill="none" stroke-width="2">
<path d="m404.07 856.32v-505.07h222.23" marker-end="url(#a)" stroke="#f00"/>
<path d="m818.22 355.29h58.589v-193.95h218.19" marker-end="url(#a)" stroke="#f00"/>
<path d="m1745.5 842.18v-420.22h-341.43-141.42v-139.4h367.7v-72.731h-206.07" marker-end="url(#a)" stroke="#006900"/>
</g>
</svg>
